[gd_scene load_steps=7 format=3 uid="uid://co4sb12g4w7ol"]

[ext_resource type="PackedScene" uid="uid://cpk4rbvoxf8ex" path="res://scenes/level.tscn" id="1_5nyl6"]
[ext_resource type="PackedScene" uid="uid://dltti86lmy3uj" path="res://scenes/player.tscn" id="1_ivegi"]
[ext_resource type="PackedScene" uid="uid://drhvoxfk51bei" path="res://scenes/ui.tscn" id="3_n5ytp"]

[sub_resource type="ProceduralSkyMaterial" id="ProceduralSkyMaterial_r7aqy"]
sky_top_color = Color(0.713726, 0, 0.764706, 1)
sky_horizon_color = Color(0.392157, 0.764706, 0, 1)
sky_curve = 0.0588439
ground_bottom_color = Color(0, 0, 0, 1)
ground_horizon_color = Color(0.313726, 0.776471, 0, 1)

[sub_resource type="Sky" id="Sky_j7wga"]
sky_material = SubResource("ProceduralSkyMaterial_r7aqy")

[sub_resource type="Environment" id="Environment_y6wfv"]
background_mode = 2
background_energy_multiplier = 0.5
sky = SubResource("Sky_j7wga")

[node name="Node3D" type="Node3D"]

[node name="WorldEnvironment" type="WorldEnvironment" parent="."]
environment = SubResource("Environment_y6wfv")

[node name="SpotLight3D" type="DirectionalLight3D" parent="."]
transform = Transform3D(0.156821, 0.930433, -0.331213, 0.0128765, 0.333407, 0.942695, 0.987543, -0.1521, 0.0403047, -6.79709, 7.997, 6.78187)

[node name="Level" parent="." instance=ExtResource("1_5nyl6")]

[node name="UI" parent="." instance=ExtResource("3_n5ytp")]
offset_right = 576.0
offset_bottom = 648.0

[node name="Player" parent="." instance=ExtResource("1_ivegi")]
unique_name_in_owner = true
transform = Transform3D(1, 0, 0, 0, 1, 0, 0, 0, 1, 0.00632, 1, 0)
f_grip_factor = 1.0
r_grip_factor = 1.0
steering_hardness = 0.0331613
